[
  {
    "inputs": [],
    "stateMutability": "nonpayable",
    "type": "constructor"
  },
  {
    "anonymous": false,
    "inputs": [
      {
        "indexed": true,
        "internalType": "address",
        "name": "owner",
        "type": "address"
      },
      {
        "indexed": true,
        "internalType": "address",
        "name": "grossiste",
        "type": "address"
      },
      {
        "indexed": false,
        "internalType": "string",
        "name": "tagContainer",
        "type": "string"
      }
    ],
    "name": "addContainer",
    "type": "event"
  },
  {
    "inputs": [
      {
        "internalType": "string",
        "name": "tagContainer",
        "type": "string"
      },
      {
        "internalType": "address",
        "name": "grossite",
        "type": "address"
      },
      {
        "internalType": "string",
        "name": "seuilTemperature",
        "type": "string"
      },
      {
        "internalType": "string",
        "name": "seuilHumidite",
        "type": "string"
      }
    ],
    "name": "AddContainer",
    "outputs": [
      {
        "internalType": "bool",
        "name": "",
        "type": "bool"
      }
    ],
    "stateMutability": "nonpayable",
    "type": "function"
  },
  {
    "inputs": [
      {
        "internalType": "string",
        "name": "name",
        "type": "string"
      },
      {
        "internalType": "string",
        "name": "id",
        "type": "string"
      },
      {
        "internalType": "address",
        "name": "address_user",
        "type": "address"
      }
    ],
    "name": "AddGrossiste",
    "outputs": [
      {
        "internalType": "bool",
        "name": "",
        "type": "bool"
      }
    ],
    "stateMutability": "nonpayable",
    "type": "function"
  },
  {
    "anonymous": false,
    "inputs": [
      {
        "indexed": true,
        "internalType": "address",
        "name": "owner",
        "type": "address"
      },
      {
        "indexed": true,
        "internalType": "address",
        "name": "grossiste",
        "type": "address"
      },
      {
        "indexed": false,
        "internalType": "string",
        "name": "numLot",
        "type": "string"
      },
      {
        "indexed": false,
        "internalType": "uint256",
        "name": "time",
        "type": "uint256"
      }
    ],
    "name": "addMedicament",
    "type": "event"
  },
  {
    "inputs": [
      {
        "internalType": "string",
        "name": "name",
        "type": "string"
      },
      {
        "internalType": "string",
        "name": "numLot",
        "type": "string"
      },
      {
        "internalType": "string",
        "name": "amm",
        "type": "string"
      },
      {
        "internalType": "string",
        "name": "serialNumber",
        "type": "string"
      },
      {
        "internalType": "string",
        "name": "dateExpiration",
        "type": "string"
      },
      {
        "internalType": "address",
        "name": "grossiste",
        "type": "address"
      },
      {
        "internalType": "string",
        "name": "tagContainer",
        "type": "string"
      },
      {
        "internalType": "string",
        "name": "nameOwner",
        "type": "string"
      },
      {
        "internalType": "address",
        "name": "newOwner",
        "type": "address"
      },
      {
        "internalType": "string",
        "name": "nameNewOwner",
        "type": "string"
      }
    ],
    "name": "AddMedicament",
    "outputs": [
      {
        "internalType": "bool",
        "name": "",
        "type": "bool"
      }
    ],
    "stateMutability": "nonpayable",
    "type": "function"
  },
  {
    "inputs": [
      {
        "internalType": "string",
        "name": "name",
        "type": "string"
      },
      {
        "internalType": "string",
        "name": "id",
        "type": "string"
      },
      {
        "internalType": "address",
        "name": "address_user",
        "type": "address"
      }
    ],
    "name": "AddTransporteur",
    "outputs": [
      {
        "internalType": "bool",
        "name": "",
        "type": "bool"
      }
    ],
    "stateMutability": "nonpayable",
    "type": "function"
  },
  {
    "anonymous": false,
    "inputs": [
      {
        "indexed": true,
        "internalType": "address",
        "name": "users",
        "type": "address"
      },
      {
        "indexed": false,
        "internalType": "enum SharedStruct.ROLE",
        "name": "role",
        "type": "uint8"
      }
    ],
    "name": "addUser",
    "type": "event"
  },
  {
    "anonymous": false,
    "inputs": [
      {
        "indexed": true,
        "internalType": "address",
        "name": "owner",
        "type": "address"
      },
      {
        "indexed": true,
        "internalType": "address",
        "name": "transporteur",
        "type": "address"
      },
      {
        "indexed": false,
        "internalType": "string",
        "name": "tagContainer",
        "type": "string"
      }
    ],
    "name": "assignmentContainer",
    "type": "event"
  },
  {
    "inputs": [
      {
        "internalType": "address",
        "name": "transporteur",
        "type": "address"
      },
      {
        "internalType": "string",
        "name": "tagContainer",
        "type": "string"
      }
    ],
    "name": "AssignmentContainer",
    "outputs": [
      {
        "internalType": "bool",
        "name": "",
        "type": "bool"
      }
    ],
    "stateMutability": "nonpayable",
    "type": "function"
  },
  {
    "inputs": [
      {
        "internalType": "string",
        "name": "tagContainer",
        "type": "string"
      },
      {
        "internalType": "string",
        "name": "temprature",
        "type": "string"
      },
      {
        "internalType": "string",
        "name": "humidite",
        "type": "string"
      }
    ],
    "name": "ReceivedContainer",
    "outputs": [],
    "stateMutability": "nonpayable",
    "type": "function"
  },
  {
    "inputs": [
      {
        "internalType": "address",
        "name": "address_user",
        "type": "address"
      }
    ],
    "name": "removeUser",
    "outputs": [
      {
        "internalType": "bool",
        "name": "",
        "type": "bool"
      }
    ],
    "stateMutability": "nonpayable",
    "type": "function"
  },
  {
    "anonymous": false,
    "inputs": [
      {
        "components": [
          {
            "internalType": "string",
            "name": "id",
            "type": "string"
          },
          {
            "internalType": "string",
            "name": "name",
            "type": "string"
          },
          {
            "internalType": "uint256",
            "name": "dateExport",
            "type": "uint256"
          },
          {
            "internalType": "string[]",
            "name": "temprature",
            "type": "string[]"
          },
          {
            "internalType": "string[]",
            "name": "humidite",
            "type": "string[]"
          },
          {
            "internalType": "string",
            "name": "seuilTemperature",
            "type": "string"
          },
          {
            "internalType": "string",
            "name": "seuilHumidite",
            "type": "string"
          },
          {
            "internalType": "address",
            "name": "owner",
            "type": "address"
          },
          {
            "internalType": "address",
            "name": "grossiste",
            "type": "address"
          },
          {
            "components": [
              {
                "internalType": "string",
                "name": "name",
                "type": "string"
              },
              {
                "internalType": "string",
                "name": "numLot",
                "type": "string"
              },
              {
                "internalType": "string",
                "name": "amm",
                "type": "string"
              },
              {
                "internalType": "string",
                "name": "serialNumber",
                "type": "string"
              },
              {
                "internalType": "string",
                "name": "dateExpiration",
                "type": "string"
              },
              {
                "internalType": "address",
                "name": "grossiste",
                "type": "address"
              },
              {
                "internalType": "string",
                "name": "tagContainer",
                "type": "string"
              },
              {
                "internalType": "address",
                "name": "owner",
                "type": "address"
              },
              {
                "internalType": "string",
                "name": "nameOwner",
                "type": "string"
              },
              {
                "internalType": "address",
                "name": "newOwner",
                "type": "address"
              },
              {
                "internalType": "string",
                "name": "nameNewOwner",
                "type": "string"
              },
              {
                "internalType": "bool",
                "name": "exists",
                "type": "bool"
              }
            ],
            "internalType": "struct SharedStruct.Medicament[]",
            "name": "medicaments",
            "type": "tuple[]"
          },
          {
            "internalType": "enum SharedStruct.ContainerState",
            "name": "state",
            "type": "uint8"
          },
          {
            "internalType": "address",
            "name": "transporteur",
            "type": "address"
          },
          {
            "internalType": "bool",
            "name": "exists",
            "type": "bool"
          }
        ],
        "indexed": false,
        "internalType": "struct SharedStruct.Container",
        "name": "container",
        "type": "tuple"
      }
    ],
    "name": "sendContainer",
    "type": "event"
  },
  {
    "anonymous": false,
    "inputs": [
      {
        "indexed": false,
        "internalType": "string",
        "name": "tagContainer",
        "type": "string"
      },
      {
        "indexed": false,
        "internalType": "string",
        "name": "temprature",
        "type": "string"
      },
      {
        "indexed": false,
        "internalType": "string",
        "name": "humidite",
        "type": "string"
      }
    ],
    "name": "stateContainer",
    "type": "event"
  },
  {
    "inputs": [
      {
        "internalType": "string",
        "name": "tagContainer",
        "type": "string"
      },
      {
        "internalType": "string",
        "name": "temprature",
        "type": "string"
      },
      {
        "internalType": "string",
        "name": "humidite",
        "type": "string"
      }
    ],
    "name": "StateContainer",
    "outputs": [
      {
        "internalType": "bool",
        "name": "",
        "type": "bool"
      }
    ],
    "stateMutability": "nonpayable",
    "type": "function"
  },
  {
    "anonymous": false,
    "inputs": [
      {
        "indexed": false,
        "internalType": "address",
        "name": "sender",
        "type": "address"
      },
      {
        "indexed": false,
        "internalType": "string",
        "name": "tagContainer",
        "type": "string"
      },
      {
        "indexed": false,
        "internalType": "string",
        "name": "temprature",
        "type": "string"
      },
      {
        "indexed": false,
        "internalType": "string",
        "name": "humidite",
        "type": "string"
      }
    ],
    "name": "updateSensorSeuil",
    "type": "event"
  },
  {
    "inputs": [
      {
        "internalType": "string",
        "name": "tagContainer",
        "type": "string"
      },
      {
        "internalType": "string",
        "name": "temprature",
        "type": "string"
      },
      {
        "internalType": "string",
        "name": "humidite",
        "type": "string"
      }
    ],
    "name": "UpdateSensorSeuil",
    "outputs": [],
    "stateMutability": "nonpayable",
    "type": "function"
  },
  {
    "inputs": [
      {
        "internalType": "string",
        "name": "",
        "type": "string"
      }
    ],
    "name": "containers",
    "outputs": [
      {
        "internalType": "string",
        "name": "id",
        "type": "string"
      },
      {
        "internalType": "string",
        "name": "name",
        "type": "string"
      },
      {
        "internalType": "uint256",
        "name": "dateExport",
        "type": "uint256"
      },
      {
        "internalType": "string",
        "name": "seuilTemperature",
        "type": "string"
      },
      {
        "internalType": "string",
        "name": "seuilHumidite",
        "type": "string"
      },
      {
        "internalType": "address",
        "name": "owner",
        "type": "address"
      },
      {
        "internalType": "address",
        "name": "grossiste",
        "type": "address"
      },
      {
        "internalType": "enum SharedStruct.ContainerState",
        "name": "state",
        "type": "uint8"
      },
      {
        "internalType": "address",
        "name": "transporteur",
        "type": "address"
      },
      {
        "internalType": "bool",
        "name": "exists",
        "type": "bool"
      }
    ],
    "stateMutability": "view",
    "type": "function"
  },
  {
    "inputs": [
      {
        "internalType": "string",
        "name": "tagContainer",
        "type": "string"
      }
    ],
    "name": "getContainer",
    "outputs": [
      {
        "components": [
          {
            "internalType": "string",
            "name": "id",
            "type": "string"
          },
          {
            "internalType": "string",
            "name": "name",
            "type": "string"
          },
          {
            "internalType": "uint256",
            "name": "dateExport",
            "type": "uint256"
          },
          {
            "internalType": "string[]",
            "name": "temprature",
            "type": "string[]"
          },
          {
            "internalType": "string[]",
            "name": "humidite",
            "type": "string[]"
          },
          {
            "internalType": "string",
            "name": "seuilTemperature",
            "type": "string"
          },
          {
            "internalType": "string",
            "name": "seuilHumidite",
            "type": "string"
          },
          {
            "internalType": "address",
            "name": "owner",
            "type": "address"
          },
          {
            "internalType": "address",
            "name": "grossiste",
            "type": "address"
          },
          {
            "components": [
              {
                "internalType": "string",
                "name": "name",
                "type": "string"
              },
              {
                "internalType": "string",
                "name": "numLot",
                "type": "string"
              },
              {
                "internalType": "string",
                "name": "amm",
                "type": "string"
              },
              {
                "internalType": "string",
                "name": "serialNumber",
                "type": "string"
              },
              {
                "internalType": "string",
                "name": "dateExpiration",
                "type": "string"
              },
              {
                "internalType": "address",
                "name": "grossiste",
                "type": "address"
              },
              {
                "internalType": "string",
                "name": "tagContainer",
                "type": "string"
              },
              {
                "internalType": "address",
                "name": "owner",
                "type": "address"
              },
              {
                "internalType": "string",
                "name": "nameOwner",
                "type": "string"
              },
              {
                "internalType": "address",
                "name": "newOwner",
                "type": "address"
              },
              {
                "internalType": "string",
                "name": "nameNewOwner",
                "type": "string"
              },
              {
                "internalType": "bool",
                "name": "exists",
                "type": "bool"
              }
            ],
            "internalType": "struct SharedStruct.Medicament[]",
            "name": "medicaments",
            "type": "tuple[]"
          },
          {
            "internalType": "enum SharedStruct.ContainerState",
            "name": "state",
            "type": "uint8"
          },
          {
            "internalType": "address",
            "name": "transporteur",
            "type": "address"
          },
          {
            "internalType": "bool",
            "name": "exists",
            "type": "bool"
          }
        ],
        "internalType": "struct SharedStruct.Container",
        "name": "data",
        "type": "tuple"
      }
    ],
    "stateMutability": "view",
    "type": "function"
  },
  {
    "inputs": [
      {
        "internalType": "string",
        "name": "",
        "type": "string"
      }
    ],
    "name": "medicaments",
    "outputs": [
      {
        "internalType": "string",
        "name": "name",
        "type": "string"
      },
      {
        "internalType": "string",
        "name": "numLot",
        "type": "string"
      },
      {
        "internalType": "string",
        "name": "amm",
        "type": "string"
      },
      {
        "internalType": "string",
        "name": "serialNumber",
        "type": "string"
      },
      {
        "internalType": "string",
        "name": "dateExpiration",
        "type": "string"
      },
      {
        "internalType": "address",
        "name": "grossiste",
        "type": "address"
      },
      {
        "internalType": "string",
        "name": "tagContainer",
        "type": "string"
      },
      {
        "internalType": "address",
        "name": "owner",
        "type": "address"
      },
      {
        "internalType": "string",
        "name": "nameOwner",
        "type": "string"
      },
      {
        "internalType": "address",
        "name": "newOwner",
        "type": "address"
      },
      {
        "internalType": "string",
        "name": "nameNewOwner",
        "type": "string"
      },
      {
        "internalType": "bool",
        "name": "exists",
        "type": "bool"
      }
    ],
    "stateMutability": "view",
    "type": "function"
  },
  {
    "inputs": [],
    "name": "owner",
    "outputs": [
      {
        "internalType": "address",
        "name": "",
        "type": "address"
      }
    ],
    "stateMutability": "view",
    "type": "function"
  },
  {
    "inputs": [
      {
        "internalType": "address",
        "name": "",
        "type": "address"
      }
    ],
    "name": "users",
    "outputs": [
      {
        "internalType": "string",
        "name": "name",
        "type": "string"
      },
      {
        "internalType": "string",
        "name": "id",
        "type": "string"
      },
      {
        "internalType": "enum SharedStruct.ROLE",
        "name": "role",
        "type": "uint8"
      },
      {
        "internalType": "bool",
        "name": "exists",
        "type": "bool"
      }
    ],
    "stateMutability": "view",
    "type": "function"
  }
]
