{
  "configuration": {
    "$mid": 1,
    "fsPath": "c:\\Users\\YOUSSEF\\Desktop\\PFE\\pfe-blockchain\\laboratoire\\ui-web\\.metadata\\codemix.code-workspace",
    "_sep": 1,
    "external": "file:///c%3A/Users/YOUSSEF/Desktop/PFE/pfe-blockchain/laboratoire/ui-web/.metadata/codemix.code-workspace",
    "path": "/C:/Users/YOUSSEF/Desktop/PFE/pfe-blockchain/laboratoire/ui-web/.metadata/codemix.code-workspace",
    "scheme": "file"
  }
}