[
  {
    "constant": false,
    "inputs": [
      {
        "name": "_destination",
        "type": "bytes32"
      },
      {
        "name": "_Nbr_Seats",
        "type": "uint256"
      },
      {
        "name": "_departureTime",
        "type": "uint256"
      },
      {
        "name": "_price",
        "type": "uint256"
      }
    ],
    "name": "AddCar",
    "outputs": [
      {
        "name": "",
        "type": "bool"
      }
    ],
    "payable": false,
    "stateMutability": "nonpayable",
    "type": "function"
  },
  {
    "constant": false,
    "inputs": [
      {
        "name": "_type",
        "type": "bytes32"
      }
    ],
    "name": "Adduser",
    "outputs": [
      {
        "name": "",
        "type": "bool"
      }
    ],
    "payable": false,
    "stateMutability": "nonpayable",
    "type": "function"
  },
  {
    "constant": false,
    "inputs": [],
    "name": "GetBalanceSender",
    "outputs": [
      {
        "name": "",
        "type": "uint256"
      }
    ],
    "payable": false,
    "stateMutability": "nonpayable",
    "type": "function"
  },
  {
    "constant": false,
    "inputs": [
      {
        "name": "_carAddress",
        "type": "address"
      }
    ],
    "name": "getPassengersCount",
    "outputs": [
      {
        "name": "count",
        "type": "uint256"
      }
    ],
    "payable": false,
    "stateMutability": "nonpayable",
    "type": "function"
  },
  {
    "constant": false,
    "inputs": [
      {
        "name": "_CarAddress",
        "type": "address"
      },
      {
        "name": "_rank",
        "type": "uint256"
      }
    ],
    "name": "PayCar",
    "outputs": [
      {
        "name": "",
        "type": "bool"
      }
    ],
    "payable": false,
    "stateMutability": "nonpayable",
    "type": "function"
  },
  {
    "constant": false,
    "inputs": [
      {
        "name": "_CarAddress",
        "type": "address"
      },
      {
        "name": "_passengerAddress",
        "type": "address"
      },
      {
        "name": "_rank",
        "type": "uint256"
      }
    ],
    "name": "RankPassenger",
    "outputs": [
      {
        "name": "",
        "type": "bool"
      }
    ],
    "payable": false,
    "stateMutability": "nonpayable",
    "type": "function"
  },
  {
    "constant": false,
    "inputs": [
      {
        "name": "_CarAddress",
        "type": "address"
      }
    ],
    "name": "ReserveSeat",
    "outputs": [
      {
        "name": "",
        "type": "bool"
      }
    ],
    "payable": false,
    "stateMutability": "nonpayable",
    "type": "function"
  },
  {
    "anonymous": false,
    "inputs": [
      {
        "indexed": true,
        "name": "_UserId",
        "type": "address"
      }
    ],
    "name": "addUserdEvent",
    "type": "event"
  },
  {
    "anonymous": false,
    "inputs": [
      {
        "indexed": true,
        "name": "_UserId",
        "type": "address"
      }
    ],
    "name": "addCarEvent",
    "type": "event"
  },
  {
    "anonymous": false,
    "inputs": [
      {
        "indexed": true,
        "name": "_UserId",
        "type": "address"
      }
    ],
    "name": "ReserveSeatEvent",
    "type": "event"
  },
  {
    "constant": true,
    "inputs": [
      {
        "name": "",
        "type": "address"
      }
    ],
    "name": "cars",
    "outputs": [
      {
        "name": "destination",
        "type": "bytes32"
      },
      {
        "name": "Nbr_Seats",
        "type": "uint256"
      },
      {
        "name": "departureTime",
        "type": "uint256"
      },
      {
        "name": "state",
        "type": "bool"
      },
      {
        "name": "price",
        "type": "uint256"
      }
    ],
    "payable": false,
    "stateMutability": "view",
    "type": "function"
  },
  {
    "constant": true,
    "inputs": [],
    "name": "getCarCount",
    "outputs": [
      {
        "name": "",
        "type": "uint256"
      }
    ],
    "payable": false,
    "stateMutability": "view",
    "type": "function"
  },
  {
    "constant": true,
    "inputs": [],
    "name": "getUserCount",
    "outputs": [
      {
        "name": "",
        "type": "uint256"
      }
    ],
    "payable": false,
    "stateMutability": "view",
    "type": "function"
  },
  {
    "constant": true,
    "inputs": [
      {
        "name": "",
        "type": "address"
      }
    ],
    "name": "users",
    "outputs": [
      {
        "name": "typeofuser",
        "type": "bytes32"
      },
      {
        "name": "rank",
        "type": "uint256"
      },
      {
        "name": "state",
        "type": "bool"
      },
      {
        "name": "sum",
        "type": "uint256"
      },
      {
        "name": "Nbr_ranks",
        "type": "uint256"
      }
    ],
    "payable": false,
    "stateMutability": "view",
    "type": "function"
  }
]
