[
  {
    "constant": false,
    "inputs": [
      {
        "name": "_value",
        "type": "uint256"
      }
    ],
    "name": "convertMoneyToToken",
    "outputs": [
      {
        "name": "",
        "type": "uint256"
      }
    ],
    "payable": true,
    "stateMutability": "payable",
    "type": "function"
  },
  {
    "constant": false,
    "inputs": [
      {
        "name": "_scholarshipId",
        "type": "uint256"
      },
      {
        "name": "_studentAddr",
        "type": "address"
      }
    ],
    "name": "depositeScholarship",
    "outputs": [
      {
        "name": "",
        "type": "uint256"
      }
    ],
    "payable": false,
    "stateMutability": "nonpayable",
    "type": "function"
  },
  {
    "constant": false,
    "inputs": [
      {
        "name": "staddr",
        "type": "address"
      }
    ],
    "name": "getStudentBalance",
    "outputs": [
      {
        "name": "",
        "type": "uint256"
      }
    ],
    "payable": false,
    "stateMutability": "nonpayable",
    "type": "function"
  },
  {
    "constant": false,
    "inputs": [
      {
        "name": "_studentAddr",
        "type": "address"
      },
      {
        "name": "_stName",
        "type": "string"
      },
      {
        "name": "_studentLevel",
        "type": "uint256"
      }
    ],
    "name": "registerStudent",
    "outputs": [],
    "payable": false,
    "stateMutability": "nonpayable",
    "type": "function"
  },
  {
    "constant": false,
    "inputs": [
      {
        "name": "_studentAddr",
        "type": "address"
      },
      {
        "name": "_scholarshipId",
        "type": "uint256"
      }
    ],
    "name": "withdrawScholarship",
    "outputs": [],
    "payable": false,
    "stateMutability": "nonpayable",
    "type": "function"
  },
  {
    "inputs": [],
    "payable": false,
    "stateMutability": "nonpayable",
    "type": "constructor"
  },
  {
    "anonymous": false,
    "inputs": [
      {
        "indexed": false,
        "name": "b",
        "type": "uint256"
      }
    ],
    "name": "showBalance",
    "type": "event"
  },
  {
    "constant": true,
    "inputs": [],
    "name": "scholarshipNbr",
    "outputs": [
      {
        "name": "",
        "type": "uint256"
      }
    ],
    "payable": false,
    "stateMutability": "view",
    "type": "function"
  },
  {
    "constant": true,
    "inputs": [
      {
        "name": "",
        "type": "address"
      }
    ],
    "name": "scholarships",
    "outputs": [
      {
        "name": "scholarshipId",
        "type": "uint256"
      },
      {
        "name": "value",
        "type": "uint256"
      },
      {
        "name": "scholarshipState",
        "type": "uint8"
      }
    ],
    "payable": false,
    "stateMutability": "view",
    "type": "function"
  },
  {
    "constant": true,
    "inputs": [
      {
        "name": "",
        "type": "address"
      }
    ],
    "name": "students",
    "outputs": [
      {
        "name": "studentAddr",
        "type": "address"
      },
      {
        "name": "name",
        "type": "string"
      },
      {
        "name": "studentLevel",
        "type": "uint256"
      },
      {
        "name": "balance",
        "type": "uint256"
      },
      {
        "name": "hasScholarship",
        "type": "bool"
      },
      {
        "name": "subscribed",
        "type": "bool"
      },
      {
        "name": "trancheNbr",
        "type": "uint256"
      },
      {
        "name": "tokens",
        "type": "uint256"
      }
    ],
    "payable": false,
    "stateMutability": "view",
    "type": "function"
  },
  {
    "constant": true,
    "inputs": [],
    "name": "val",
    "outputs": [
      {
        "name": "",
        "type": "uint256"
      }
    ],
    "payable": false,
    "stateMutability": "view",
    "type": "function"
  }
]
