{
  "project_info": {
    "project_number": "838218019602",
    "firebase_url": "https://supplychainlabo.firebaseio.com",
    "project_id": "supplychainlabo",
    "storage_bucket": "supplychainlabo.appspot.com"
  },
  "client": [
    {
      "client_info": {
        "mobilesdk_app_id": "1:838218019602:android:3f2d1483c8c04a40bab9cb",
        "android_client_info": {
          "package_name": "com.drugs.chain"
        }
      },
      "oauth_client": [
        {
          "client_id": "838218019602-htmeb7ial1d5jcss1estdkktvl4bac7d.apps.googleusercontent.com",
          "client_type": 3
        }
      ],
      "api_key": [
        {
          "current_key": "AIzaSyDYw_TXo2Xrn4yHOZ-5BgfRT0lBJFFIKIA"
        }
      ],
      "services": {
        "appinvite_service": {
          "other_platform_oauth_client": [
            {
              "client_id": "838218019602-htmeb7ial1d5jcss1estdkktvl4bac7d.apps.googleusercontent.com",
              "client_type": 3
            }
          ]
        }
      }
    },
    {
      "client_info": {
        "mobilesdk_app_id": "1:838218019602:android:f3462141da151e5bbab9cb",
        "android_client_info": {
          "package_name": "com.ionic.drugschain"
        }
      },
      "oauth_client": [
        {
          "client_id": "838218019602-htmeb7ial1d5jcss1estdkktvl4bac7d.apps.googleusercontent.com",
          "client_type": 3
        }
      ],
      "api_key": [
        {
          "current_key": "AIzaSyDYw_TXo2Xrn4yHOZ-5BgfRT0lBJFFIKIA"
        }
      ],
      "services": {
        "appinvite_service": {
          "other_platform_oauth_client": [
            {
              "client_id": "838218019602-htmeb7ial1d5jcss1estdkktvl4bac7d.apps.googleusercontent.com",
              "client_type": 3
            }
          ]
        }
      }
    }
  ],
  "configuration_version": "1"
}